{
  "Properties": {
    "FunctionName": "pollingFunction",
    "Handler": "polling-function.handler",
    "Policies": [
      "AWSLambdaExecute",
      {
        "DynamoDBCrudPolicy": {
          "TableName": "*"
        }
      }
    ]
  }
}
